<?xml version="1.0" encoding="UTF-8" standalone="no"?>
<!-- Created with Inkscape (http://www.inkscape.org/) -->

<svg
   xmlns:dc="http://purl.org/dc/elements/1.1/"
   xmlns:cc="http://creativecommons.org/ns#"
   xmlns:rdf="http://www.w3.org/1999/02/22-rdf-syntax-ns#"
   xmlns:svg="http://www.w3.org/2000/svg"
   xmlns="http://www.w3.org/2000/svg"
   xmlns:sodipodi="http://sodipodi.sourceforge.net/DTD/sodipodi-0.dtd"
   xmlns:inkscape="http://www.inkscape.org/namespaces/inkscape"
   width="464.26828"
   height="355.77039"
   id="svg2"
   version="1.1"
   inkscape:version="0.92.3 (2405546, 2018-03-11)"
   sodipodi:docname="implicit-euler.svg">
  <sodipodi:namedview
     id="base"
     pagecolor="#ffffff"
     bordercolor="#666666"
     borderopacity="1.0"
     inkscape:pageopacity="0.0"
     inkscape:pageshadow="2"
     inkscape:zoom="1.4"
     inkscape:cx="60.780604"
     inkscape:cy="113.49337"
     inkscape:document-units="px"
     inkscape:current-layer="layer1"
     showgrid="false"
     inkscape:window-width="1853"
     inkscape:window-height="1025"
     inkscape:window-x="67"
     inkscape:window-y="27"
     inkscape:window-maximized="1"
     fit-margin-top="0"
     fit-margin-left="0"
     fit-margin-right="0"
     fit-margin-bottom="0" />
  <defs
     id="defs4">
    <marker
       style="overflow:visible"
       id="Arrow1Mend"
       refX="0"
       refY="0"
       orient="auto"
       inkscape:stockid="Arrow1Mend">
      <path
         transform="matrix(-0.4,0,0,-0.4,-4,0)"
         style="fill-rule:evenodd;stroke:#000000;stroke-width:1.00000003pt"
         d="M 0,0 5,-5 -12.5,0 5,5 Z"
         id="path3819"
         inkscape:connector-curvature="0" />
    </marker>
    <marker
       style="overflow:visible"
       id="Arrow1MendQ"
       refX="0"
       refY="0"
       orient="auto"
       inkscape:stockid="Arrow1MendQ">
      <path
         transform="matrix(-0.4,0,0,-0.4,-4,0)"
         style="fill:#3936b6;fill-rule:evenodd;stroke:#3936b6;stroke-width:1.00000003pt"
         d="M 0,0 5,-5 -12.5,0 5,5 Z"
         id="path4255"
         inkscape:connector-curvature="0" />
    </marker>
    <marker
       style="overflow:visible"
       id="Arrow1MendQ-7"
       refX="0"
       refY="0"
       orient="auto"
       inkscape:stockid="Arrow1MendQ">
      <path
         inkscape:connector-curvature="0"
         transform="matrix(-0.4,0,0,-0.4,-4,0)"
         style="fill:#3936b6;fill-rule:evenodd;stroke:#3936b6;stroke-width:1.00000003pt"
         d="M 0,0 5,-5 -12.5,0 5,5 Z"
         id="path4255-9" />
    </marker>
  </defs>
  <metadata
     id="metadata7">
    <rdf:RDF>
      <cc:Work
         rdf:about="">
        <dc:format>image/svg+xml</dc:format>
        <dc:type
           rdf:resource="http://purl.org/dc/dcmitype/StillImage" />
        <dc:title></dc:title>
      </cc:Work>
    </rdf:RDF>
  </metadata>
  <g
     transform="translate(-75.153192,-228.07771)"
     id="layer1"
     inkscape:groupmode="layer"
     inkscape:label="Layer 1">
    <path
       inkscape:connector-curvature="0"
       id="path2985"
       d="M 145.46197,228.07771 V 550.31637 H 539.42146"
       style="fill:none;stroke:#000000;stroke-width:1px;stroke-linecap:butt;stroke-linejoin:miter;stroke-opacity:1" />
    <text
       id="text2987"
       y="245.81801"
       x="121.64991"
       style="font-style:normal;font-weight:normal;font-size:6px;line-height:0%;font-family:sans-serif;letter-spacing:0px;word-spacing:0px;fill:#000000;fill-opacity:1;stroke:none;stroke-width:0.5"
       xml:space="preserve"><tspan
         style="font-style:italic;font-size:20px;line-height:1.25;font-family:sans-serif;-inkscape-font-specification:'Sans Italic';stroke-width:0.5"
         y="245.81801"
         x="121.64991"
         id="tspan2989"
         sodipodi:role="line">y</tspan></text>
    <text
       id="text2991"
       y="583.65137"
       x="183.10675"
       style="font-style:normal;font-weight:normal;font-size:6px;line-height:0%;font-family:sans-serif;letter-spacing:0px;word-spacing:0px;fill:#000000;fill-opacity:1;stroke:none;stroke-width:0.5"
       xml:space="preserve"><tspan
         style="font-style:italic;font-size:20px;line-height:1.25;font-family:sans-serif;-inkscape-font-specification:'Sans Italic';stroke-width:0.5"
         y="583.65137"
         x="183.10675"
         id="tspan2993"
         sodipodi:role="line">t</tspan></text>
    <text
       id="text2991-0"
       y="583.84808"
       x="456.13281"
       style="font-style:normal;font-weight:normal;font-size:6px;line-height:0%;font-family:sans-serif;letter-spacing:0px;word-spacing:0px;fill:#000000;fill-opacity:1;stroke:none;stroke-width:0.5"
       xml:space="preserve"><tspan
         style="font-style:italic;font-size:20px;line-height:1.25;font-family:sans-serif;-inkscape-font-specification:'Sans Italic';stroke-width:0.5"
         y="583.84808"
         x="456.13281"
         id="tspan2993-7"
         sodipodi:role="line">t + h<tspan
   id="tspan2994"
   style="font-style:normal;font-family:sans-serif;-inkscape-font-specification:Sans;stroke-width:0.5" /></tspan></text>
    <path
       transform="translate(93.444187,196.10118)"
       inkscape:connector-curvature="0"
       id="path3977"
       d="m 92.934034,346.13395 c 0,3.7039 0,7.40779 0,11.11168"
       style="fill:none;stroke:#000000;stroke-width:1px;stroke-linecap:butt;stroke-linejoin:miter;stroke-opacity:1" />
    <path
       inkscape:connector-curvature="0"
       id="path3977-3"
       d="m 475.28185,539.70975 c 0,3.7039 0,7.40779 0,11.11168"
       style="fill:none;stroke:#000000;stroke-width:1px;stroke-linecap:butt;stroke-linejoin:miter;stroke-opacity:1" />
    <path
       sodipodi:nodetypes="cc"
       transform="translate(93.444187,196.10118)"
       inkscape:connector-curvature="0"
       id="path3997"
       d="M 90.913729,286.53495 C 214.51276,255.91736 333.86689,221.05487 380.82751,113.79887"
       style="fill:none;stroke:#000000;stroke-width:3;stroke-linecap:butt;stroke-linejoin:miter;stroke-miterlimit:4;stroke-dasharray:none;stroke-opacity:1" />
    <path
       transform="translate(93.444187,196.10118)"
       inkscape:connector-curvature="0"
       id="path3999"
       d="M -18.182746,310.77862 223.24371,257.24053"
       style="fill:none;stroke:#c84242;stroke-width:1;stroke-linecap:butt;stroke-linejoin:miter;stroke-miterlimit:4;stroke-dasharray:1, 1;stroke-dashoffset:0;stroke-opacity:1" />
    <path
       sodipodi:nodetypes="cc"
       inkscape:connector-curvature="0"
       id="path3999-5"
       d="M 435.38082,408.38992 502.05089,240.70459"
       style="color:#000000;display:inline;overflow:visible;visibility:visible;fill:none;stroke:#c84242;stroke-width:1;stroke-linecap:butt;stroke-linejoin:miter;stroke-miterlimit:4;stroke-dasharray:1, 1;stroke-dashoffset:0;stroke-opacity:1;marker:none;enable-background:accumulate" />
    <text
       id="text3781"
       y="371.43674"
       x="173.44418"
       style="font-style:normal;font-weight:normal;line-height:0%;font-family:sans-serif;letter-spacing:0px;word-spacing:0px;fill:#3936b6;fill-opacity:1;stroke:none"
       xml:space="preserve"><tspan
         style="font-size:20px;line-height:1.25;font-family:sans-serif;fill:#3936b6;fill-opacity:1"
         y="371.43674"
         x="173.44418"
         id="tspan3783"
         sodipodi:role="line">explicit</tspan></text>
    <path
       transform="translate(93.444187,196.10118)"
       inkscape:connector-curvature="0"
       id="path3785"
       d="M 107.85714,186.04985 94.285715,273.90699"
       style="color:#000000;display:inline;overflow:visible;visibility:visible;fill:none;fill-opacity:1;fill-rule:nonzero;stroke:#3936b6;stroke-width:1px;stroke-linecap:butt;stroke-linejoin:miter;stroke-opacity:1;marker:none;marker-end:url(#Arrow1MendQ);enable-background:accumulate" />
    <path
       inkscape:connector-curvature="0"
       id="path3785-7"
       d="m 418.49234,284.28188 48.57143,24.28571"
       style="color:#000000;display:inline;overflow:visible;visibility:visible;fill:none;stroke:#3936b6;stroke-width:1px;stroke-linecap:butt;stroke-linejoin:miter;stroke-opacity:1;marker:none;marker-end:url(#Arrow1MendQ);enable-background:accumulate"
       sodipodi:nodetypes="cc" />
    <text
       id="text3781-3"
       y="274.09717"
       x="336.42618"
       style="font-style:normal;font-weight:normal;line-height:0%;font-family:sans-serif;letter-spacing:0px;word-spacing:0px;fill:#3936b6;fill-opacity:1;stroke:none"
       xml:space="preserve"><tspan
         style="font-size:20px;line-height:1.25;font-family:sans-serif;fill:#3936b6;fill-opacity:1"
         y="274.09717"
         x="336.42618"
         id="tspan3783-7"
         sodipodi:role="line">implicit</tspan></text>
  </g>
</svg>
