<?xml version="1.0" encoding="UTF-8" standalone="no"?>
<!-- Created with Inkscape (http://www.inkscape.org/) -->

<svg
   width="327.2016"
   height="199.0423"
   id="svg2"
   version="1.1"
   inkscape:version="1.2.2 (b0a8486541, 2022-12-01)"
   sodipodi:docname="s-curve.svg"
   xmlns:inkscape="http://www.inkscape.org/namespaces/inkscape"
   xmlns:sodipodi="http://sodipodi.sourceforge.net/DTD/sodipodi-0.dtd"
   xmlns="http://www.w3.org/2000/svg"
   xmlns:svg="http://www.w3.org/2000/svg"
   xmlns:rdf="http://www.w3.org/1999/02/22-rdf-syntax-ns#"
   xmlns:cc="http://creativecommons.org/ns#"
   xmlns:dc="http://purl.org/dc/elements/1.1/">
  <defs
     id="defs4">
    <marker
       style="overflow:visible"
       id="Arrow1"
       refX="0"
       refY="0"
       orient="auto-start-reverse"
       inkscape:stockid="Arrow1"
       markerWidth="4.0606604"
       markerHeight="6.7071066"
       viewBox="0 0 4.0606602 6.7071068"
       inkscape:isstock="true"
       inkscape:collect="always"
       preserveAspectRatio="xMidYMid">
      <path
         style="fill:none;stroke:context-stroke;stroke-width:1;stroke-linecap:butt"
         d="M 3,-3 0,0 3,3"
         id="path5057"
         transform="rotate(180,0.125,0)"
         sodipodi:nodetypes="ccc" />
    </marker>
    <rect
       x="69.620187"
       y="191.0798"
       width="46.29813"
       height="16.439732"
       id="rect1393" />
    <inkscape:path-effect
       effect="spiro"
       id="path-effect3778"
       is_visible="true" />
    <inkscape:path-effect
       effect="spiro"
       id="path-effect3778-8"
       is_visible="true" />
    <inkscape:path-effect
       effect="spiro"
       id="path-effect3778-8-2"
       is_visible="true" />
    <inkscape:path-effect
       effect="spiro"
       id="path-effect3778-9"
       is_visible="true" />
    <inkscape:path-effect
       effect="spiro"
       id="path-effect3778-9-2"
       is_visible="true" />
    <inkscape:path-effect
       effect="spiro"
       id="path-effect3778-9-2-0"
       is_visible="true" />
    <inkscape:path-effect
       effect="spiro"
       id="path-effect3778-9-2-0-3"
       is_visible="true" />
    <inkscape:path-effect
       effect="spiro"
       id="path-effect3778-9-2-0-3-0"
       is_visible="true" />
    <inkscape:path-effect
       effect="spiro"
       id="path-effect3778-9-2-0-3-0-2"
       is_visible="true" />
    <marker
       style="overflow:visible"
       id="Arrow1-6"
       refX="0"
       refY="0"
       orient="auto-start-reverse"
       inkscape:stockid="Arrow1"
       markerWidth="4.0606604"
       markerHeight="6.7071066"
       viewBox="0 0 4.0606602 6.7071068"
       inkscape:isstock="true"
       inkscape:collect="always"
       preserveAspectRatio="xMidYMid">
      <path
         style="fill:none;stroke:context-stroke;stroke-width:1;stroke-linecap:butt"
         d="M 3,-3 0,0 3,3"
         id="path5057-7"
         transform="rotate(180,0.125,0)"
         sodipodi:nodetypes="ccc" />
    </marker>
  </defs>
  <sodipodi:namedview
     id="base"
     pagecolor="#ffffff"
     bordercolor="#666666"
     borderopacity="1.0"
     inkscape:pageopacity="0.0"
     inkscape:pageshadow="2"
     inkscape:zoom="1.979899"
     inkscape:cx="-8.8388347"
     inkscape:cy="61.871843"
     inkscape:document-units="px"
     inkscape:current-layer="layer1"
     showgrid="false"
     inkscape:window-width="2048"
     inkscape:window-height="1083"
     inkscape:window-x="0"
     inkscape:window-y="0"
     inkscape:window-maximized="1"
     fit-margin-top="0"
     fit-margin-left="0"
     fit-margin-right="0"
     fit-margin-bottom="0"
     inkscape:showpageshadow="2"
     inkscape:pagecheckerboard="0"
     inkscape:deskcolor="#d1d1d1" />
  <metadata
     id="metadata7">
    <rdf:RDF>
      <cc:Work
         rdf:about="">
        <dc:format>image/svg+xml</dc:format>
        <dc:type
           rdf:resource="http://purl.org/dc/dcmitype/StillImage" />
        <dc:title />
      </cc:Work>
    </rdf:RDF>
  </metadata>
  <g
     inkscape:label="Layer 1"
     inkscape:groupmode="layer"
     id="layer1"
     transform="translate(-336.12332,-147.2655)">
    <path
       style="fill:none;stroke:#8e3030;stroke-opacity:1;stroke-dasharray:1,1;stroke-dashoffset:0"
       d="M 447.50645,223.5695 V 330.6871"
       id="path319" />
    <path
       style="fill:none;stroke:#8e3030;stroke-dasharray:1, 1;stroke-dashoffset:0;stroke-opacity:1"
       d="m 525.66905,253.36407 v 76.25468"
       id="path319-3"
       sodipodi:nodetypes="cc" />
    <path
       style="fill:none;stroke:#000000;stroke-width:1px;stroke-linecap:butt;stroke-linejoin:miter;stroke-opacity:1"
       d="M 350.32488,147.2655 V 330.10311 H 663.32493"
       id="path2985-3"
       inkscape:connector-curvature="0"
       sodipodi:nodetypes="ccc" />
    <text
       xml:space="preserve"
       style="font-style:normal;font-weight:normal;line-height:0%;font-family:sans-serif;letter-spacing:0px;word-spacing:0px;fill:#000000;fill-opacity:1;stroke:none"
       x="638.37714"
       y="346.3078"
       id="text3792-5"><tspan
         sodipodi:role="line"
         id="tspan3794-3"
         x="638.37714"
         y="346.3078"
         style="font-style:italic;font-size:12px;line-height:1.25;font-family:sans-serif;-inkscape-font-specification:'Sans Italic'">T<tspan
   style="font-style:normal;font-size:65%;baseline-shift:super"
   id="tspan866">0</tspan></tspan></text>
    <text
       xml:space="preserve"
       style="font-style:normal;font-weight:normal;line-height:0%;font-family:sans-serif;letter-spacing:0px;word-spacing:0px;fill:#000000;fill-opacity:1;stroke:none"
       x="335.6077"
       y="161.98619"
       id="text3792-56"><tspan
         sodipodi:role="line"
         id="tspan3794-2"
         x="335.6077"
         y="161.98619"
         style="font-style:italic;font-size:12px;line-height:1.25;font-family:sans-serif;-inkscape-font-specification:'Sans Italic'">T</tspan></text>
    <path
       style="fill:none;stroke:#000000;stroke-width:1px;stroke-linecap:butt;stroke-linejoin:miter;stroke-opacity:1"
       d="m 350.09034,315.0072 c 36.9791,-16.0921 152.64785,-12.85652 173.24117,-54.04316 18.46314,-36.92628 -86.56202,-17.7948 -75.25637,-40.4061 16.11616,-32.23231 159.11695,-52.51608 194.95944,-63.63961"
       id="path900"
       inkscape:connector-curvature="0" />
    <text
       xml:space="preserve"
       style="font-style:normal;font-weight:normal;font-size:16px;line-height:1.25;font-family:sans-serif;letter-spacing:0px;word-spacing:0px;fill:#000000;fill-opacity:1;stroke:none"
       x="448.40457"
       y="290.74918"
       id="text833"
       transform="rotate(-12.759032)"><tspan
         sodipodi:role="line"
         id="tspan831"
         x="448.40457"
         y="290.74918"
         style="font-size:10.6667px">stable branch</tspan></text>
    <text
       xml:space="preserve"
       style="font-style:normal;font-weight:normal;font-size:16px;line-height:1.25;font-family:sans-serif;letter-spacing:0px;word-spacing:0px;fill:#000000;fill-opacity:1;stroke:none"
       x="353.43152"
       y="359.25821"
       id="text833-3"
       transform="rotate(-9.4175251)"><tspan
         sodipodi:role="line"
         id="tspan831-6"
         x="353.43152"
         y="359.25821"
         style="font-size:10.6667px">stable branch</tspan></text>
    <text
       xml:space="preserve"
       style="font-style:normal;font-weight:normal;font-size:16px;line-height:1.25;font-family:sans-serif;letter-spacing:0px;word-spacing:0px;fill:#000000;fill-opacity:1;stroke:none"
       x="495.81833"
       y="124.4022"
       id="text833-7"
       transform="rotate(11.913726)"><tspan
         sodipodi:role="line"
         id="tspan831-5"
         x="495.81833"
         y="124.4022"
         style="font-size:10.6667px">unstable branch</tspan></text>
    <text
       xml:space="preserve"
       style="font-size:8px;white-space:pre;inline-size:96.0035;fill:#8e3030;stroke:none;stroke-dasharray:1, 1;stroke-dashoffset:0;stroke-opacity:1"
       x="458.38199"
       y="341.85117"
       id="text1183"
       transform="translate(-6.335798,1.3929966)"><tspan
         x="458.38199"
         y="341.85117"
         id="tspan1843">bifurcation points</tspan></text>
    <text
       xml:space="preserve"
       transform="translate(336.12332,147.2655)"
       id="text1391"
       style="fill:#8e3030;stroke:none;stroke-opacity:1;stroke-dasharray:1, 1;stroke-dashoffset:0;fill-opacity:1;font-size:8px;white-space:pre;shape-inside:url(#rect1393)" />
    <path
       style="fill:none;fill-opacity:1;stroke:#8e3030;stroke-dasharray:none;stroke-dashoffset:0;stroke-opacity:1;marker-end:url(#Arrow1)"
       d="m 451.67438,341.5275 c -4.20998,-0.47861 -5.90949,-3.22326 -4.75167,-8.54702"
       id="path1460"
       sodipodi:nodetypes="cc" />
    <path
       style="fill:none;fill-opacity:1;stroke:#8e3030;stroke-dasharray:none;stroke-dashoffset:0;stroke-opacity:1;marker-end:url(#Arrow1-6)"
       d="m 521.41177,342.16839 c 4.20998,-0.47861 5.90949,-3.22326 4.75167,-8.54702"
       id="path1460-5"
       sodipodi:nodetypes="cc" />
  </g>
</svg>
